{
    "type": "minecraft:green/playground",
    "generator": {
        "type": "minecraft:flat",
        "settings": {
            "biome": "minecraft:the_void",
            "features": false,
            "lakes": false,
            "structures": {
                "stronghold": {
                    "distance": 350,
                    "count": 1,
                    "spread": 100
                },
                "structures": {}
            },
            "layers": [
                {
                    "block": "minecraft:bedrock",
                    "height": 1
                },
                {
                    "block": "minecraft:stone",
                    "height": 58
                },
                {
                    "block": "minecraft:dirt",
                    "height": 4
                },
                {
                    "block": "minecraft:grass_block",
                    "height": 1
                }
            ]
        }
    }
}