{
    "display": {
        "icon": {
            "item": "minecraft:daylight_detector"
        },
        "title": "看起来不错",
        "description": "玩上50分钟",
        "frame": "task"
    },
    "parent": "green:creative/just_here",
    "criteria": {
        "comd": {
            "trigger": "minecraft:impossible"
        }
    }
}