{
    "display": {
        "icon": {
            "item": "minecraft:trident"
        },
        "title": "怪物避雷针",
        "description": "雷击你能遇到的所有怪物，还有流浪商人",
        "frame": "challenge",
        "hidden": false
    },
    "parent": "green:creative/root",
    "criteria": {
        "strike_zombie": {
            "trigger": "minecraft:channeled_lightning",
            "conditions": {
                "victims": [
                    {
                        "type": "minecraft:zombie"
                    }
                ]
            }
        },
        "strike_skeleton": {
            "trigger": "minecraft:channeled_lightning",
            "conditions": {
                "victims": [
                    {
                        "type": "minecraft:skeleton"
                    }
                ]
            }
        },
        "strike_spider": {
            "trigger": "minecraft:channeled_lightning",
            "conditions": {
                "victims": [
                    {
                        "type": "minecraft:spider"
                    }
                ]
            }
        },
        "strike_witch": {
            "trigger": "minecraft:channeled_lightning",
            "conditions": {
                "victims": [
                    {
                        "type": "minecraft:witch"
                    }
                ]
            }
        },
        "strike_zombie_villager": {
            "trigger": "minecraft:channeled_lightning",
            "conditions": {
                "victims": [
                    {
                        "type": "minecraft:zombie_villager"
                    }
                ]
            }
        },
        "strike_pillager": {
            "trigger": "minecraft:channeled_lightning",
            "conditions": {
                "victims": [
                    {
                        "type": "minecraft:pillager"
                    }
                ]
            }
        },
        "strike_wandering_trader": {
            "trigger": "minecraft:channeled_lightning",
            "conditions": {
                "victims": [
                    {
                        "type": "minecraft:wandering_trader"
                    }
                ]
            }
        },
        "strike_vindicator": {
            "trigger": "minecraft:channeled_lightning",
            "conditions": {
                "victims": [
                    {
                        "type": "minecraft:vindicator"
                    }
                ]
            }
        },
        "strike_evoker": {
            "trigger": "minecraft:channeled_lightning",
            "conditions": {
                "victims": [
                    {
                        "type": "minecraft:evoker"
                    }
                ]
            }
        },
        "strike_slime": {
            "trigger": "minecraft:channeled_lightning",
            "conditions": {
                "victims": [
                    {
                        "type": "minecraft:slime"
                    }
                ]
            }
        }
    }
}