{
    "display": {
        "icon": {
            "item": "minecraft:slime_ball"
        },
        "title": "元老级人物",
        "description": "玩上500分钟",
        "frame": "challenge"
    },
    "parent": "green:creative/killtime",
    "criteria": {
        "comd": {
            "trigger": "minecraft:impossible"
        }
    }
}